{
  "artifactGenerations" : [ ],
  "artifactId" : "cdm",
  "groupId" : "com.finos.Alloy",
  "metamodelDependencies" : [ ],
  "projectDependencies" : [ ],
  "projectId" : "UAT-34",
  "projectStructureVersion" : {
    "extensionVersion" : 2,
    "version" : 12
  },
  "projectType" : null
}